{
	"info": {
		"_postman_id": "d7f4234d-158a-4fdf-a33a-21462f9f624b",
		"name": "Rest_reference",
		"schema": "https://schema.getpostman.com/json/collection/v2.1.0/collection.json",
		"_exporter_id": "29395140"
	},
	"item": [
		{
			"name": "New Request",
			"event": [
				{
					"listen": "test",
					"script": {
						"exec": [
							"//step 1 validate status code\r",
							"pm.test(\"validate status code\",function(){\r",
							"pm.response.to.have.status(201);\r",
							"})\r",
							"//setp 2 declare expected results\r",
							"//Step 2.1 Declare the expected date\r",
							"var actualDate= new Date().toJSON().slice(0,11);\r",
							"// step 2.2 Fetch request parameters from request body\r",
							"var requestBody=pm.request.body.raw;\r",
							"requestBody = JSON.parse(requestBody);\r",
							"var req_name=requestBody.name;\r",
							"var req_job=requestBody.job;\r",
							"//step 3.1validate response body\r",
							"//step 3.1 extract resposne body\r",
							"var responseBody=pm.response.json();\r",
							"\r",
							"//step 3.3 extract the responsebody value for each name\r",
							"var res_name=responseBody.name;\r",
							"var res_job=responseBody.job;\r",
							"var res_id=responseBody.id;\r",
							"var res_date=responseBody.createdAt;\r",
							"res_date=res_date.slice(0,11);\r",
							"\r",
							"// step 3.3 validate respons body\r",
							"\r",
							"\r",
							"pm.test(\"validate responseBody:name\",function (){\r",
							"    pm.expect(res_name).to.eql(req_name)\r",
							"\r",
							"})\r",
							"pm.test(\"Validate responseBody:job\",function () {\r",
							"    pm.expect(res_job).to.eql(req_job)\r",
							"})\r",
							"pm.test(\"validate responseBody:id\",function(){\r",
							"    pm.expect(res_id).to.not.null;\r",
							"    pm.expect(res_id).to.not.eql(0);\r",
							"})\r",
							"pm.test(\"validate responseBody:date\",function(){\r",
							"    pm.expect(res_date).to.eql(actualDate);\r",
							"})\r",
							""
						],
						"type": "text/javascript"
					}
				},
				{
					"listen": "prerequest",
					"script": {
						"exec": [
							""
						],
						"type": "text/javascript"
					}
				}
			],
			"protocolProfileBehavior": {
				"disableBodyPruning": true
			},
			"request": {
				"method": "GET",
				"header": [],
				"body": {
					"mode": "raw",
					"raw": "{\r\n     \"name\": \"morpheus\",\r\n    \"job\": \"leader\"\r\n}",
					"options": {
						"raw": {
							"language": "json"
						}
					}
				},
				"url": {
					"raw": "https://reqres.in/api/users",
					"protocol": "https",
					"host": [
						"reqres",
						"in"
					],
					"path": [
						"api",
						"users"
					]
				}
			},
			"response": []
		},
		{
			"name": "New request",
			"event": [
				{
					"listen": "prerequest",
					"script": {
						"exec": [
							""
						],
						"type": "text/javascript"
					}
				},
				{
					"listen": "test",
					"script": {
						"exec": [
							"//step 1: validate status code\r",
							"pm.test(\"Status code is 201\", function () {\r",
							"    pm.response.to.have.status(201);\r",
							"});\r",
							"//step 2: validate response body\r",
							"//step 2:1 extract response body\r",
							"var responseBody = pm.response.json();\r",
							"console.log(responseBody)\r",
							"\r",
							"//step 2.2: extract the responseBody values for each name\r",
							"var res_name=responseBody.name;\r",
							"var res_job=responseBody.job;\r",
							"console.log(res_name,res_job);\r",
							"\r",
							"//step 2.3 : validate responseBody\r",
							"pm.test(\"validate response body:name\",function (){\r",
							"    pm.expect(res_name).to.eql(\"morpheus\")\r",
							"})\r",
							"\r",
							"pm.test(\"validate response body:job\", function() {\r",
							"    pm.expect(res_job).to.eql(\"leader\")\r",
							"})\r",
							""
						],
						"type": "text/javascript"
					}
				}
			],
			"request": {
				"method": "PATCH",
				"header": [],
				"body": {
					"mode": "raw",
					"raw": "{\r\n     \"name\": \"morpheus\",\r\n    \"job\": \"leader\"\r\n}",
					"options": {
						"raw": {
							"language": "json"
						}
					}
				},
				"url": {
					"raw": "https://reqres.in/api/users",
					"protocol": "https",
					"host": [
						"reqres",
						"in"
					],
					"path": [
						"api",
						"users"
					]
				}
			},
			"response": []
		},
		{
			"name": "New Request",
			"event": [
				{
					"listen": "prerequest",
					"script": {
						"exec": [
							"var Name = pm.variables.replaceIn('{{$randomFirstName}}');\r",
							"\r",
							"pm.collectionVariables.set(\"Collection_Name \", Name);\r",
							"\r",
							""
						],
						"type": "text/javascript"
					}
				},
				{
					"listen": "test",
					"script": {
						"exec": [
							"//step 1: validate status code\r",
							"pm.test(\"Status code is 201\", function () {\r",
							"    pm.response.to.have.status(201);\r",
							"});\r",
							"//step 2: validate response body\r",
							"//step 2:1 extract response body\r",
							"var responseBody = pm.response.json();\r",
							"console.log(responseBody)\r",
							"\r",
							"//step 2.2: extract the responseBody values for each name\r",
							"var res_name=responseBody.name;\r",
							"var res_job=responseBody.job;\r",
							"console.log(res_name,res_job);\r",
							"\r",
							"//step 2.3 : validate responseBody\r",
							"pm.test(\"validate response body:name\",function (){\r",
							"    pm.expect(res_name).to.eql(\"morpheus\")\r",
							"})\r",
							"\r",
							"pm.test(\"validate response body:job\", function() {\r",
							"    pm.expect(res_job).to.eql(\"leader\")\r",
							"})\r",
							""
						],
						"type": "text/javascript"
					}
				}
			],
			"request": {
				"method": "POST",
				"header": [],
				"body": {
					"mode": "raw",
					"raw": "{\r\n     \"name\": \"{{Collection_Name}}\",\r\n    \"job\": \"leader\"\r\n}",
					"options": {
						"raw": {
							"language": "json"
						}
					}
				},
				"url": {
					"raw": "{{POST_URL}}",
					"host": [
						"{{POST_URL}}"
					]
				}
			},
			"response": []
		}
	],
	"variable": [
		{
			"key": "Collection_Name ",
			"value": ""
		}
	]
}