{
	"info": {
		"_postman_id": "554da5c9-25a9-4a5f-a604-142ba9e71864",
		"name": "Swaggers",
		"schema": "https://schema.getpostman.com/json/collection/v2.1.0/collection.json",
		"_exporter_id": "29395140"
	},
	"item": [
		{
			"name": "Get_SWG",
			"event": [
				{
					"listen": "test",
					"script": {
						"exec": [
							"pm.test(\"ststus code is 200\", function(){\r",
							"pm.response.to.have.status(200);\r",
							"})"
						],
						"type": "text/javascript"
					}
				}
			],
			"protocolProfileBehavior": {
				"disableBodyPruning": true
			},
			"request": {
				"method": "GET",
				"header": [],
				"body": {
					"mode": "raw",
					"raw": "{\r\n  \"id\": 0,\r\n  \"category\": {\r\n    \"id\": 0,\r\n    \"name\": \"string\"\r\n  },\r\n  \"name\": \"doggie\",\r\n  \"photoUrls\": [\r\n    \"string\"\r\n  ],\r\n  \"tags\": [\r\n    {\r\n      \"id\": 0,\r\n      \"name\": \"string\"\r\n    }\r\n  ],\r\n  \"status\": \"available\"\r\n}",
					"options": {
						"raw": {
							"language": "json"
						}
					}
				},
				"url": {
					"raw": "https://petstore.swagger.io/v2/pet/findByStatus?status=available",
					"protocol": "https",
					"host": [
						"petstore",
						"swagger",
						"io"
					],
					"path": [
						"v2",
						"pet",
						"findByStatus"
					],
					"query": [
						{
							"key": "status",
							"value": "available"
						}
					]
				}
			},
			"response": []
		},
		{
			"name": "Get1_Array",
			"event": [
				{
					"listen": "test",
					"script": {
						"exec": [
							"pm.test(\"ststus code is 200\", function(){\r",
							"pm.response.to.have.status(200);\r",
							"})"
						],
						"type": "text/javascript"
					}
				}
			],
			"protocolProfileBehavior": {
				"disableBodyPruning": true
			},
			"request": {
				"method": "GET",
				"header": [],
				"body": {
					"mode": "raw",
					"raw": " {\r\n    \"id\": 0,\r\n    \"username\": \"string\",\r\n    \"firstName\": \"string\",\r\n    \"lastName\": \"string\",\r\n    \"email\": \"string\",\r\n    \"password\": \"string\",\r\n    \"phone\": \"string\",\r\n    \"userStatus\": 0\r\n  }",
					"options": {
						"raw": {
							"language": "json"
						}
					}
				},
				"url": {
					"raw": "https://petstore.swagger.io/v2/user/createWithArray",
					"protocol": "https",
					"host": [
						"petstore",
						"swagger",
						"io"
					],
					"path": [
						"v2",
						"user",
						"createWithArray"
					]
				}
			},
			"response": []
		},
		{
			"name": "Post_SWG Copy",
			"event": [
				{
					"listen": "test",
					"script": {
						"exec": [
							"pm.test(\"ststus code is 200\", function(){\r",
							"pm.response.to.have.status(200);\r",
							"})"
						],
						"type": "text/javascript"
					}
				}
			],
			"request": {
				"method": "POST",
				"header": [],
				"body": {
					"mode": "raw",
					"raw": "{\r\n  \"id\": 0,\r\n  \"category\": {\r\n    \"id\": 0,\r\n    \"name\": \"string\"\r\n  },\r\n  \"name\": \"doggie\",\r\n  \"photoUrls\": [\r\n    \"string\"\r\n  ],\r\n  \"tags\": [\r\n    {\r\n      \"id\": 0,\r\n      \"name\": \"string\"\r\n    }\r\n  ],\r\n  \"status\": \"available\"\r\n}",
					"options": {
						"raw": {
							"language": "json"
						}
					}
				},
				"url": {
					"raw": "https://petstore.swagger.io/v2/pet",
					"protocol": "https",
					"host": [
						"petstore",
						"swagger",
						"io"
					],
					"path": [
						"v2",
						"pet"
					]
				}
			},
			"response": []
		},
		{
			"name": "Put_SWG",
			"request": {
				"method": "PUT",
				"header": []
			},
			"response": []
		}
	]
}