{
	"id": "6f798516-561e-4234-bfaf-bdbed8fe9278",
	"name": "ReqresSIT",
	"values": [
		{
			"key": "Base_URL",
			"value": "https://reqresSIT.in",
			"type": "default",
			"enabled": true
		},
		{
			"key": "POST_URL",
			"value": "{{Base_URL}}/api/users",
			"type": "default",
			"enabled": true
		},
		{
			"key": "GET_URL",
			"value": "{{Base_URL}}/api/users?page=2",
			"type": "default",
			"enabled": true
		},
		{
			"key": "PATCH_URL",
			"value": "{{Base_URL}}/api/users/2",
			"type": "default",
			"enabled": true
		},
		{
			"key": "PUT_URL",
			"value": "{{Base_URL}}/api/users/2",
			"type": "default",
			"enabled": true
		}
	],
	"_postman_variable_scope": "environment",
	"_postman_exported_at": "2023-10-29T18:08:36.852Z",
	"_postman_exported_using": "Postman/10.19.7"
}